<?xml version="1.0" standalone="no"?>
<!DOCTYPE svg PUBLIC "-//W3C//DTD SVG 1.1//EN" "http://www.w3.org/Graphics/SVG/1.1/DTD/svg11.dtd">
<svg xmlns="http://www.w3.org/2000/svg">
<metadata>Copyright (C) 2017 by original authors @ fontello.com</metadata>
<defs>
<font id="fontello" horiz-adv-x="1000" >
<font-face font-family="fontello" font-weight="400" font-stretch="normal" units-per-em="1000" ascent="850" descent="-150" />
<missing-glyph horiz-adv-x="1000" />
<glyph glyph-name="search" unicode="&#xe800;" d="M643 386q0 103-73 176t-177 74-177-74-73-176 73-177 177-73 177 73 73 177z m286-465q0-29-22-50t-50-21q-30 0-50 21l-191 191q-100-69-223-69-80 0-153 31t-125 84-84 125-31 153 31 152 84 126 125 84 153 31 153-31 125-84 84-126 31-152q0-123-69-223l191-191q21-21 21-51z" horiz-adv-x="928.6" />

<glyph glyph-name="down-open" unicode="&#xe801;" d="M939 399l-414-413q-10-11-25-11t-25 11l-414 413q-11 11-11 26t11 25l93 92q10 11 25 11t25-11l296-296 296 296q11 11 25 11t26-11l92-92q11-11 11-25t-11-26z" horiz-adv-x="1000" />

<glyph glyph-name="attach" unicode="&#xe802;" d="M244-140q-102 0-170 72-72 70-74 166t84 190l496 496q80 80 174 54 44-12 79-47t47-79q26-96-54-176l-474-474q-40-40-88-46-48-4-80 28-30 24-27 74t47 92l332 334q24 26 50 0t0-50l-332-332q-44-44-20-70 12-8 24-6 24 4 46 26l474 474q50 50 34 108-16 60-76 76-54 14-108-36l-494-494q-66-76-64-143t52-117q50-48 117-50t141 62l496 494q24 24 50 0 26-22 0-48l-496-496q-82-82-186-82z" horiz-adv-x="939" />
</font>
</defs>
</svg>